…
``` r
bikeshare <- bikeshare %>%
  mutate(temp_raw = temp*41) %>% 
  mutate(atemp_raw = atemp*50) %>% 
  mutate(hum_raw = hum*100) %>% 
  mutate(windspeed_raw = windspeed*67)
bikeshare
```

    ## # A tibble: 731 x 20
    ##    instant dteday     season yr     mnth holiday weekday workingday weathersit
    ##      <dbl> <date>     <fct>  <fct> <dbl> <fct>     <dbl> <fct>      <fct>     
    ##  1       1 2011-01-01 winter 2011      1 no            6 no         mist      
    ##  2       2 2011-01-02 winter 2011      1 no            0 no         mist      
    ##  3       3 2011-01-03 winter 2011      1 no            1 yes        clear     
    ##  4       4 2011-01-04 winter 2011      1 no            2 yes        clear     
    ##  5       5 2011-01-05 winter 2011      1 no            3 yes        clear     
    ##  6       6 2011-01-06 winter 2011      1 no            4 yes        clear     
    ##  7       7 2011-01-07 winter 2011      1 no            5 yes        mist      
    ##  8       8 2011-01-08 winter 2011      1 no            6 no         mist      
    ##  9       9 2011-01-09 winter 2011      1 no            0 no         clear     
    ## 10      10 2011-01-10 winter 2011      1 no            1 yes        clear     
    ## # ... with 721 more rows, and 11 more variables: temp <dbl>, atemp <dbl>,
    ## #   hum <dbl>, windspeed <dbl>, casual <dbl>, registered <dbl>, cnt <dbl>,
    ## #   temp_raw <dbl>, atemp_raw <dbl>, hum_raw <dbl>, windspeed_raw <dbl>

6\. Check that the sum of casual and registered adds up to `cnt` for
each record. Hint: One way of doing this is to create a new column that
takes on the value TRUE if they add up and FALSE if not, and then
checking if all values in that column are TRUEs. But this is only one
way, you might come up with another.

``` r
bikeshare %>%
  summarise(casual+registered==cnt)
```

    ## # A tibble: 731 x 1
    ##    `casual + registered == cnt`
    ##    <lgl>                       
    ##  1 TRUE                        
    ##  2 TRUE                        
    ##  3 TRUE                        
    ##  4 TRUE                        
    ##  5 TRUE                        
    ##  6 TRUE                        
    ##  7 TRUE                        
    ##  8 TRUE                        
    ##  9 TRUE                        
    ## 10 TRUE                        
    ## # ... with 721 more rows
…
